^E:\GAME_PROJECTS\VS 2013\LIBRARIES\CMAKE\GLFW-3.2\SRC\CONTEXT.C|E:\GAME_PROJECTS\VS 2013\LIBRARIES\CMAKE\GLFW-3.2\SRC\EGL_CONTEXT.C|E:\GAME_PROJECTS\VS 2013\LIBRARIES\CMAKE\GLFW-3.2\SRC\INIT.C|E:\GAME_PROJECTS\VS 2013\LIBRARIES\CMAKE\GLFW-3.2\SRC\INPUT.C|E:\GAME_PROJECTS\VS 2013\LIBRARIES\CMAKE\GLFW-3.2\SRC\MONITOR.C|E:\GAME_PROJECTS\VS 2013\LIBRARIES\CMAKE\GLFW-3.2\SRC\VULKAN.C|E:\GAME_PROJECTS\VS 2013\LIBRARIES\CMAKE\GLFW-3.2\SRC\WGL_CONTEXT.C|E:\GAME_PROJECTS\VS 2013\LIBRARIES\CMAKE\GLFW-3.2\SRC\WIN32_INIT.C|E:\GAME_PROJECTS\VS 2013\LIBRARIES\CMAKE\GLFW-3.2\SRC\WIN32_JOYSTICK.C|E:\GAME_PROJECTS\VS 2013\LIBRARIES\CMAKE\GLFW-3.2\SRC\WIN32_MONITOR.C|E:\GAME_PROJECTS\VS 2013\LIBRARIES\CMAKE\GLFW-3.2\SRC\WIN32_TIME.C|E:\GAME_PROJECTS\VS 2013\LIBRARIES\CMAKE\GLFW-3.2\SRC\WIN32_TLS.C|E:\GAME_PROJECTS\VS 2013\LIBRARIES\CMAKE\GLFW-3.2\SRC\WIN32_WINDOW.C|E:\GAME_PROJECTS\VS 2013\LIBRARIES\CMAKE\GLFW-3.2\SRC\WINDOW.C
E:\GAME_PROJECTS\VS 2013\LIBRARIES\CMAKE\GLFW-3.2\BUILDS\SRC\GLFW.DIR\DEBUG\VC120.PDB
E:\GAME_PROJECTS\VS 2013\LIBRARIES\CMAKE\GLFW-3.2\BUILDS\SRC\GLFW.DIR\DEBUG\EGL_CONTEXT.OBJ
E:\GAME_PROJECTS\VS 2013\LIBRARIES\CMAKE\GLFW-3.2\BUILDS\SRC\GLFW.DIR\DEBUG\WGL_CONTEXT.OBJ
E:\GAME_PROJECTS\VS 2013\LIBRARIES\CMAKE\GLFW-3.2\BUILDS\SRC\GLFW.DIR\DEBUG\WIN32_WINDOW.OBJ
E:\GAME_PROJECTS\VS 2013\LIBRARIES\CMAKE\GLFW-3.2\BUILDS\SRC\GLFW.DIR\DEBUG\WIN32_TLS.OBJ
E:\GAME_PROJECTS\VS 2013\LIBRARIES\CMAKE\GLFW-3.2\BUILDS\SRC\GLFW.DIR\DEBUG\WIN32_TIME.OBJ
E:\GAME_PROJECTS\VS 2013\LIBRARIES\CMAKE\GLFW-3.2\BUILDS\SRC\GLFW.DIR\DEBUG\WIN32_MONITOR.OBJ
E:\GAME_PROJECTS\VS 2013\LIBRARIES\CMAKE\GLFW-3.2\BUILDS\SRC\GLFW.DIR\DEBUG\WIN32_JOYSTICK.OBJ
E:\GAME_PROJECTS\VS 2013\LIBRARIES\CMAKE\GLFW-3.2\BUILDS\SRC\GLFW.DIR\DEBUG\WIN32_INIT.OBJ
E:\GAME_PROJECTS\VS 2013\LIBRARIES\CMAKE\GLFW-3.2\BUILDS\SRC\GLFW.DIR\DEBUG\WINDOW.OBJ
E:\GAME_PROJECTS\VS 2013\LIBRARIES\CMAKE\GLFW-3.2\BUILDS\SRC\GLFW.DIR\DEBUG\VULKAN.OBJ
E:\GAME_PROJECTS\VS 2013\LIBRARIES\CMAKE\GLFW-3.2\BUILDS\SRC\GLFW.DIR\DEBUG\MONITOR.OBJ
E:\GAME_PROJECTS\VS 2013\LIBRARIES\CMAKE\GLFW-3.2\BUILDS\SRC\GLFW.DIR\DEBUG\INPUT.OBJ
E:\GAME_PROJECTS\VS 2013\LIBRARIES\CMAKE\GLFW-3.2\BUILDS\SRC\GLFW.DIR\DEBUG\INIT.OBJ
E:\GAME_PROJECTS\VS 2013\LIBRARIES\CMAKE\GLFW-3.2\BUILDS\SRC\GLFW.DIR\DEBUG\CONTEXT.OBJ
^E:\GAME_PROJECTS\VS 2013\LIBRARIES\CMAKE\GLFW-3.2\SRC\CONTEXT.C
E:\GAME_PROJECTS\VS 2013\LIBRARIES\CMAKE\GLFW-3.2\BUILDS\SRC\GLFW.DIR\DEBUG\VC120.PDB
^E:\GAME_PROJECTS\VS 2013\LIBRARIES\CMAKE\GLFW-3.2\SRC\INIT.C
E:\GAME_PROJECTS\VS 2013\LIBRARIES\CMAKE\GLFW-3.2\BUILDS\SRC\GLFW.DIR\DEBUG\VC120.PDB
^E:\GAME_PROJECTS\VS 2013\LIBRARIES\CMAKE\GLFW-3.2\SRC\INPUT.C
E:\GAME_PROJECTS\VS 2013\LIBRARIES\CMAKE\GLFW-3.2\BUILDS\SRC\GLFW.DIR\DEBUG\VC120.PDB
^E:\GAME_PROJECTS\VS 2013\LIBRARIES\CMAKE\GLFW-3.2\SRC\MONITOR.C
E:\GAME_PROJECTS\VS 2013\LIBRARIES\CMAKE\GLFW-3.2\BUILDS\SRC\GLFW.DIR\DEBUG\VC120.PDB
^E:\GAME_PROJECTS\VS 2013\LIBRARIES\CMAKE\GLFW-3.2\SRC\VULKAN.C
E:\GAME_PROJECTS\VS 2013\LIBRARIES\CMAKE\GLFW-3.2\BUILDS\SRC\GLFW.DIR\DEBUG\VC120.PDB
^E:\GAME_PROJECTS\VS 2013\LIBRARIES\CMAKE\GLFW-3.2\SRC\WINDOW.C
E:\GAME_PROJECTS\VS 2013\LIBRARIES\CMAKE\GLFW-3.2\BUILDS\SRC\GLFW.DIR\DEBUG\VC120.PDB
^E:\GAME_PROJECTS\VS 2013\LIBRARIES\CMAKE\GLFW-3.2\SRC\WIN32_INIT.C
E:\GAME_PROJECTS\VS 2013\LIBRARIES\CMAKE\GLFW-3.2\BUILDS\SRC\GLFW.DIR\DEBUG\VC120.PDB
^E:\GAME_PROJECTS\VS 2013\LIBRARIES\CMAKE\GLFW-3.2\SRC\WIN32_JOYSTICK.C
E:\GAME_PROJECTS\VS 2013\LIBRARIES\CMAKE\GLFW-3.2\BUILDS\SRC\GLFW.DIR\DEBUG\VC120.PDB
^E:\GAME_PROJECTS\VS 2013\LIBRARIES\CMAKE\GLFW-3.2\SRC\WIN32_MONITOR.C
E:\GAME_PROJECTS\VS 2013\LIBRARIES\CMAKE\GLFW-3.2\BUILDS\SRC\GLFW.DIR\DEBUG\VC120.PDB
^E:\GAME_PROJECTS\VS 2013\LIBRARIES\CMAKE\GLFW-3.2\SRC\WIN32_TIME.C
E:\GAME_PROJECTS\VS 2013\LIBRARIES\CMAKE\GLFW-3.2\BUILDS\SRC\GLFW.DIR\DEBUG\VC120.PDB
^E:\GAME_PROJECTS\VS 2013\LIBRARIES\CMAKE\GLFW-3.2\SRC\WIN32_TLS.C
E:\GAME_PROJECTS\VS 2013\LIBRARIES\CMAKE\GLFW-3.2\BUILDS\SRC\GLFW.DIR\DEBUG\VC120.PDB
^E:\GAME_PROJECTS\VS 2013\LIBRARIES\CMAKE\GLFW-3.2\SRC\WIN32_WINDOW.C
E:\GAME_PROJECTS\VS 2013\LIBRARIES\CMAKE\GLFW-3.2\BUILDS\SRC\GLFW.DIR\DEBUG\VC120.PDB
^E:\GAME_PROJECTS\VS 2013\LIBRARIES\CMAKE\GLFW-3.2\SRC\WGL_CONTEXT.C
E:\GAME_PROJECTS\VS 2013\LIBRARIES\CMAKE\GLFW-3.2\BUILDS\SRC\GLFW.DIR\DEBUG\VC120.PDB
^E:\GAME_PROJECTS\VS 2013\LIBRARIES\CMAKE\GLFW-3.2\SRC\EGL_CONTEXT.C
E:\GAME_PROJECTS\VS 2013\LIBRARIES\CMAKE\GLFW-3.2\BUILDS\SRC\GLFW.DIR\DEBUG\VC120.PDB
