^E:\GAME_PROJECTS\VS 2013\LIBRARIES\CMAKE\GLFW-3.2\DEPS\GLAD.C|E:\GAME_PROJECTS\VS 2013\LIBRARIES\CMAKE\GLFW-3.2\EXAMPLES\HEIGHTMAP.C
E:\GAME_PROJECTS\VS 2013\LIBRARIES\CMAKE\GLFW-3.2\BUILDS\EXAMPLES\HEIGHTMAP.DIR\DEBUG\VC120.PDB
E:\GAME_PROJECTS\VS 2013\LIBRARIES\CMAKE\GLFW-3.2\BUILDS\EXAMPLES\HEIGHTMAP.DIR\DEBUG\GLAD.OBJ
E:\GAME_PROJECTS\VS 2013\LIBRARIES\CMAKE\GLFW-3.2\BUILDS\EXAMPLES\HEIGHTMAP.DIR\DEBUG\HEIGHTMAP.OBJ
^E:\GAME_PROJECTS\VS 2013\LIBRARIES\CMAKE\GLFW-3.2\EXAMPLES\HEIGHTMAP.C
E:\GAME_PROJECTS\VS 2013\LIBRARIES\CMAKE\GLFW-3.2\BUILDS\EXAMPLES\HEIGHTMAP.DIR\DEBUG\VC120.PDB
^E:\GAME_PROJECTS\VS 2013\LIBRARIES\CMAKE\GLFW-3.2\DEPS\GLAD.C
E:\GAME_PROJECTS\VS 2013\LIBRARIES\CMAKE\GLFW-3.2\BUILDS\EXAMPLES\HEIGHTMAP.DIR\DEBUG\VC120.PDB
