^E:\GAME_PROJECTS\VS 2013\LIBRARIES\CMAKE\GLFW-3.2\BUILDS\EXAMPLES\HEIGHTMAP.DIR\DEBUG\GLAD.OBJ|E:\GAME_PROJECTS\VS 2013\LIBRARIES\CMAKE\GLFW-3.2\BUILDS\EXAMPLES\HEIGHTMAP.DIR\DEBUG\GLFW.RES|E:\GAME_PROJECTS\VS 2013\LIBRARIES\CMAKE\GLFW-3.2\BUILDS\EXAMPLES\HEIGHTMAP.DIR\DEBUG\HEIGHTMAP.OBJ
E:\GAME_PROJECTS\VS 2013\LIBRARIES\CMAKE\GLFW-3.2\BUILDS\EXAMPLES\DEBUG\HEIGHTMAP.ILK
E:\GAME_PROJECTS\VS 2013\LIBRARIES\CMAKE\GLFW-3.2\BUILDS\EXAMPLES\DEBUG\HEIGHTMAP.EXE
E:\GAME_PROJECTS\VS 2013\LIBRARIES\CMAKE\GLFW-3.2\BUILDS\EXAMPLES\DEBUG\HEIGHTMAP.PDB
