^E:\GAME_PROJECTS\LIBRARIES\SIMPLE OPENGL IMAGE LIBRARY\PROJECTS\VC9\DEBUG\IMAGE_DXT.OBJ|E:\GAME_PROJECTS\LIBRARIES\SIMPLE OPENGL IMAGE LIBRARY\PROJECTS\VC9\DEBUG\IMAGE_HELPER.OBJ|E:\GAME_PROJECTS\LIBRARIES\SIMPLE OPENGL IMAGE LIBRARY\PROJECTS\VC9\DEBUG\SOIL.OBJ|E:\GAME_PROJECTS\LIBRARIES\SIMPLE OPENGL IMAGE LIBRARY\PROJECTS\VC9\DEBUG\STB_IMAGE_AUG.OBJ
C:\WINDOWS\SYSTEM32\TZRES.DLL
E:\GAME_PROJECTS\LIBRARIES\SIMPLE OPENGL IMAGE LIBRARY\PROJECTS\VC9\DEBUG\IMAGE_DXT.OBJ
E:\GAME_PROJECTS\LIBRARIES\SIMPLE OPENGL IMAGE LIBRARY\PROJECTS\VC9\DEBUG\IMAGE_HELPER.OBJ
E:\GAME_PROJECTS\LIBRARIES\SIMPLE OPENGL IMAGE LIBRARY\PROJECTS\VC9\DEBUG\SOIL.OBJ
E:\GAME_PROJECTS\LIBRARIES\SIMPLE OPENGL IMAGE LIBRARY\PROJECTS\VC9\DEBUG\STB_IMAGE_AUG.OBJ
C:\WINDOWS\GLOBALIZATION\SORTING\SORTDEFAULT.NLS
