# Blender v2.78 (sub 0) OBJ File: 'floor2.blend'
# www.blender.org
mtllib floor2.mtl
o Plane.001
v 5.000000 10.000000 5.000000
v 5.000000 0.000000 5.000000
v 5.000000 10.000000 -5.000000
v 5.000000 0.000000 -5.000000
vt 0.0000 1.0000
vt 1.0000 1.0000
vt 1.0000 0.0000
vt 0.0000 0.0000
vn -1.0000 -0.0000 0.0000
usemtl Material.001
s off
f 1/1/1 3/2/1 4/3/1 2/4/1
