^F:\MY GAMES\R+D\3D_DISTANCE_COLLISION\CUSTOMMATH.CPP
F:\MY GAMES\R+D\3D_DISTANCE_COLLISION\CUSTOMMATH.H
C:\PROGRAM FILES (X86)\MICROSOFT VISUAL STUDIO 12.0\VC\INCLUDE\MATH.H
C:\PROGRAM FILES (X86)\MICROSOFT VISUAL STUDIO 12.0\VC\INCLUDE\CRTDEFS.H
C:\PROGRAM FILES (X86)\MICROSOFT VISUAL STUDIO 12.0\VC\INCLUDE\SAL.H
C:\PROGRAM FILES (X86)\MICROSOFT VISUAL STUDIO 12.0\VC\INCLUDE\CONCURRENCYSAL.H
C:\PROGRAM FILES (X86)\MICROSOFT VISUAL STUDIO 12.0\VC\INCLUDE\VADEFS.H
C:\PROGRAM FILES (X86)\MICROSOFT VISUAL STUDIO 12.0\VC\INCLUDE\ASSERT.H
F:\MY GAMES\LIBRARIES\GLM\GLM\GLM.HPP
F:\MY GAMES\LIBRARIES\GLM\GLM\DETAIL\_FIXES.HPP
C:\PROGRAM FILES (X86)\MICROSOFT VISUAL STUDIO 12.0\VC\INCLUDE\CMATH
C:\PROGRAM FILES (X86)\MICROSOFT VISUAL STUDIO 12.0\VC\INCLUDE\YVALS.H
C:\PROGRAM FILES (X86)\MICROSOFT VISUAL STUDIO 12.0\VC\INCLUDE\XKEYCHECK.H
C:\PROGRAM FILES (X86)\MICROSOFT VISUAL STUDIO 12.0\VC\INCLUDE\USE_ANSI.H
C:\PROGRAM FILES (X86)\MICROSOFT VISUAL STUDIO 12.0\VC\INCLUDE\XTGMATH.H
C:\PROGRAM FILES (X86)\MICROSOFT VISUAL STUDIO 12.0\VC\INCLUDE\XTR1COMMON
C:\PROGRAM FILES (X86)\MICROSOFT VISUAL STUDIO 12.0\VC\INCLUDE\CLIMITS
C:\PROGRAM FILES (X86)\MICROSOFT VISUAL STUDIO 12.0\VC\INCLUDE\LIMITS.H
C:\PROGRAM FILES (X86)\MICROSOFT VISUAL STUDIO 12.0\VC\INCLUDE\CFLOAT
C:\PROGRAM FILES (X86)\MICROSOFT VISUAL STUDIO 12.0\VC\INCLUDE\FLOAT.H
C:\PROGRAM FILES (X86)\MICROSOFT VISUAL STUDIO 12.0\VC\INCLUDE\CRTWRN.H
C:\PROGRAM FILES (X86)\MICROSOFT VISUAL STUDIO 12.0\VC\INCLUDE\LIMITS
C:\PROGRAM FILES (X86)\MICROSOFT VISUAL STUDIO 12.0\VC\INCLUDE\YMATH.H
C:\PROGRAM FILES (X86)\MICROSOFT VISUAL STUDIO 12.0\VC\INCLUDE\CWCHAR
C:\PROGRAM FILES (X86)\MICROSOFT VISUAL STUDIO 12.0\VC\INCLUDE\WCHAR.H
C:\PROGRAM FILES (X86)\MICROSOFT VISUAL STUDIO 12.0\VC\INCLUDE\SWPRINTF.INL
C:\PROGRAM FILES (X86)\MICROSOFT VISUAL STUDIO 12.0\VC\INCLUDE\WTIME.INL
C:\PROGRAM FILES (X86)\MICROSOFT VISUAL STUDIO 12.0\VC\INCLUDE\XSTDDEF
C:\PROGRAM FILES (X86)\MICROSOFT VISUAL STUDIO 12.0\VC\INCLUDE\STDLIB.H
C:\PROGRAM FILES (X86)\MICROSOFT VISUAL STUDIO 12.0\VC\INCLUDE\CSTDDEF
C:\PROGRAM FILES (X86)\MICROSOFT VISUAL STUDIO 12.0\VC\INCLUDE\STDDEF.H
C:\PROGRAM FILES (X86)\MICROSOFT VISUAL STUDIO 12.0\VC\INCLUDE\INITIALIZER_LIST
C:\PROGRAM FILES (X86)\MICROSOFT VISUAL STUDIO 12.0\VC\INCLUDE\CASSERT
F:\MY GAMES\LIBRARIES\GLM\GLM\FWD.HPP
F:\MY GAMES\LIBRARIES\GLM\GLM\DETAIL\TYPE_INT.HPP
F:\MY GAMES\LIBRARIES\GLM\GLM\DETAIL\SETUP.HPP
C:\PROGRAM FILES (X86)\MICROSOFT VISUAL STUDIO 12.0\VC\INCLUDE\EMMINTRIN.H
C:\PROGRAM FILES (X86)\MICROSOFT VISUAL STUDIO 12.0\VC\INCLUDE\XMMINTRIN.H
C:\PROGRAM FILES (X86)\MICROSOFT VISUAL STUDIO 12.0\VC\INCLUDE\MMINTRIN.H
C:\PROGRAM FILES (X86)\MICROSOFT VISUAL STUDIO 12.0\VC\INCLUDE\MALLOC.H
C:\PROGRAM FILES (X86)\MICROSOFT VISUAL STUDIO 12.0\VC\INCLUDE\TYPE_TRAITS
C:\PROGRAM FILES (X86)\MICROSOFT VISUAL STUDIO 12.0\VC\INCLUDE\XREFWRAP
C:\PROGRAM FILES (X86)\MICROSOFT VISUAL STUDIO 12.0\VC\INCLUDE\CSTDINT
C:\PROGRAM FILES (X86)\MICROSOFT VISUAL STUDIO 12.0\VC\INCLUDE\STDINT.H
F:\MY GAMES\LIBRARIES\GLM\GLM\DETAIL\TYPE_FLOAT.HPP
F:\MY GAMES\LIBRARIES\GLM\GLM\DETAIL\TYPE_VEC.HPP
F:\MY GAMES\LIBRARIES\GLM\GLM\DETAIL\PRECISION.HPP
F:\MY GAMES\LIBRARIES\GLM\GLM\DETAIL\TYPE_MAT.HPP
F:\MY GAMES\LIBRARIES\GLM\GLM\VEC2.HPP
F:\MY GAMES\LIBRARIES\GLM\GLM\DETAIL\TYPE_VEC2.HPP
F:\MY GAMES\LIBRARIES\GLM\GLM\DETAIL\TYPE_VEC2.INL
F:\MY GAMES\LIBRARIES\GLM\GLM\VEC3.HPP
F:\MY GAMES\LIBRARIES\GLM\GLM\DETAIL\TYPE_VEC3.HPP
F:\MY GAMES\LIBRARIES\GLM\GLM\DETAIL\TYPE_VEC3.INL
F:\MY GAMES\LIBRARIES\GLM\GLM\VEC4.HPP
F:\MY GAMES\LIBRARIES\GLM\GLM\DETAIL\TYPE_VEC4.HPP
F:\MY GAMES\LIBRARIES\GLM\GLM\DETAIL\TYPE_VEC4.INL
F:\MY GAMES\LIBRARIES\GLM\GLM\DETAIL\TYPE_VEC4_SSE2.INL
F:\MY GAMES\LIBRARIES\GLM\GLM\MAT2X2.HPP
F:\MY GAMES\LIBRARIES\GLM\GLM\DETAIL\TYPE_MAT2X2.HPP
F:\MY GAMES\LIBRARIES\GLM\GLM\DETAIL\TYPE_MAT2X2.INL
F:\MY GAMES\LIBRARIES\GLM\GLM\MAT2X3.HPP
F:\MY GAMES\LIBRARIES\GLM\GLM\DETAIL\TYPE_MAT2X3.HPP
F:\MY GAMES\LIBRARIES\GLM\GLM\DETAIL\TYPE_MAT2X3.INL
F:\MY GAMES\LIBRARIES\GLM\GLM\MAT2X4.HPP
F:\MY GAMES\LIBRARIES\GLM\GLM\DETAIL\TYPE_MAT2X4.HPP
F:\MY GAMES\LIBRARIES\GLM\GLM\DETAIL\TYPE_MAT2X4.INL
F:\MY GAMES\LIBRARIES\GLM\GLM\MAT3X2.HPP
F:\MY GAMES\LIBRARIES\GLM\GLM\DETAIL\TYPE_MAT3X2.HPP
F:\MY GAMES\LIBRARIES\GLM\GLM\DETAIL\TYPE_MAT3X2.INL
F:\MY GAMES\LIBRARIES\GLM\GLM\MAT3X3.HPP
F:\MY GAMES\LIBRARIES\GLM\GLM\DETAIL\TYPE_MAT3X3.HPP
F:\MY GAMES\LIBRARIES\GLM\GLM\DETAIL\TYPE_MAT3X3.INL
F:\MY GAMES\LIBRARIES\GLM\GLM\MAT3X4.HPP
F:\MY GAMES\LIBRARIES\GLM\GLM\DETAIL\TYPE_MAT3X4.HPP
F:\MY GAMES\LIBRARIES\GLM\GLM\DETAIL\TYPE_MAT3X4.INL
F:\MY GAMES\LIBRARIES\GLM\GLM\MAT4X2.HPP
F:\MY GAMES\LIBRARIES\GLM\GLM\DETAIL\TYPE_MAT4X2.HPP
F:\MY GAMES\LIBRARIES\GLM\GLM\DETAIL\TYPE_MAT4X2.INL
F:\MY GAMES\LIBRARIES\GLM\GLM\MAT4X3.HPP
F:\MY GAMES\LIBRARIES\GLM\GLM\DETAIL\TYPE_MAT4X3.HPP
F:\MY GAMES\LIBRARIES\GLM\GLM\DETAIL\TYPE_MAT4X3.INL
F:\MY GAMES\LIBRARIES\GLM\GLM\MAT4X4.HPP
F:\MY GAMES\LIBRARIES\GLM\GLM\DETAIL\TYPE_MAT4X4.HPP
F:\MY GAMES\LIBRARIES\GLM\GLM\DETAIL\TYPE_MAT4X4.INL
F:\MY GAMES\LIBRARIES\GLM\GLM\TRIGONOMETRIC.HPP
F:\MY GAMES\LIBRARIES\GLM\GLM\DETAIL\FUNC_TRIGONOMETRIC.HPP
F:\MY GAMES\LIBRARIES\GLM\GLM\DETAIL\FUNC_TRIGONOMETRIC.INL
F:\MY GAMES\LIBRARIES\GLM\GLM\DETAIL\_VECTORIZE.HPP
F:\MY GAMES\LIBRARIES\GLM\GLM\DETAIL\TYPE_VEC1.HPP
F:\MY GAMES\LIBRARIES\GLM\GLM\DETAIL\TYPE_VEC1.INL
F:\MY GAMES\LIBRARIES\GLM\GLM\EXPONENTIAL.HPP
F:\MY GAMES\LIBRARIES\GLM\GLM\DETAIL\FUNC_EXPONENTIAL.HPP
F:\MY GAMES\LIBRARIES\GLM\GLM\DETAIL\FUNC_EXPONENTIAL.INL
F:\MY GAMES\LIBRARIES\GLM\GLM\DETAIL\FUNC_VECTOR_RELATIONAL.HPP
F:\MY GAMES\LIBRARIES\GLM\GLM\DETAIL\FUNC_VECTOR_RELATIONAL.INL
F:\MY GAMES\LIBRARIES\GLM\GLM\COMMON.HPP
F:\MY GAMES\LIBRARIES\GLM\GLM\DETAIL\FUNC_COMMON.HPP
F:\MY GAMES\LIBRARIES\GLM\GLM\DETAIL\FUNC_COMMON.INL
F:\MY GAMES\LIBRARIES\GLM\GLM\PACKING.HPP
F:\MY GAMES\LIBRARIES\GLM\GLM\DETAIL\FUNC_PACKING.HPP
F:\MY GAMES\LIBRARIES\GLM\GLM\DETAIL\FUNC_PACKING.INL
F:\MY GAMES\LIBRARIES\GLM\GLM\DETAIL\TYPE_HALF.HPP
F:\MY GAMES\LIBRARIES\GLM\GLM\DETAIL\TYPE_HALF.INL
F:\MY GAMES\LIBRARIES\GLM\GLM\GEOMETRIC.HPP
F:\MY GAMES\LIBRARIES\GLM\GLM\DETAIL\FUNC_GEOMETRIC.HPP
F:\MY GAMES\LIBRARIES\GLM\GLM\DETAIL\FUNC_GEOMETRIC.INL
F:\MY GAMES\LIBRARIES\GLM\GLM\MATRIX.HPP
F:\MY GAMES\LIBRARIES\GLM\GLM\DETAIL\FUNC_MATRIX.HPP
F:\MY GAMES\LIBRARIES\GLM\GLM\DETAIL\FUNC_MATRIX.INL
F:\MY GAMES\LIBRARIES\GLM\GLM\VECTOR_RELATIONAL.HPP
F:\MY GAMES\LIBRARIES\GLM\GLM\INTEGER.HPP
F:\MY GAMES\LIBRARIES\GLM\GLM\DETAIL\FUNC_INTEGER.HPP
F:\MY GAMES\LIBRARIES\GLM\GLM\DETAIL\FUNC_INTEGER.INL
C:\PROGRAM FILES (X86)\MICROSOFT VISUAL STUDIO 12.0\VC\INCLUDE\INTRIN.H
C:\PROGRAM FILES (X86)\MICROSOFT VISUAL STUDIO 12.0\VC\INCLUDE\SETJMP.H
C:\PROGRAM FILES (X86)\MICROSOFT VISUAL STUDIO 12.0\VC\INCLUDE\IMMINTRIN.H
C:\PROGRAM FILES (X86)\MICROSOFT VISUAL STUDIO 12.0\VC\INCLUDE\WMMINTRIN.H
C:\PROGRAM FILES (X86)\MICROSOFT VISUAL STUDIO 12.0\VC\INCLUDE\NMMINTRIN.H
C:\PROGRAM FILES (X86)\MICROSOFT VISUAL STUDIO 12.0\VC\INCLUDE\SMMINTRIN.H
C:\PROGRAM FILES (X86)\MICROSOFT VISUAL STUDIO 12.0\VC\INCLUDE\TMMINTRIN.H
C:\PROGRAM FILES (X86)\MICROSOFT VISUAL STUDIO 12.0\VC\INCLUDE\PMMINTRIN.H
C:\PROGRAM FILES (X86)\MICROSOFT VISUAL STUDIO 12.0\VC\INCLUDE\AMMINTRIN.H
C:\PROGRAM FILES (X86)\MICROSOFT VISUAL STUDIO 12.0\VC\INCLUDE\MM3DNOW.H
^F:\MY GAMES\R+D\3D_DISTANCE_COLLISION\MAIN.CPP
C:\PROGRAM FILES (X86)\MICROSOFT VISUAL STUDIO 12.0\VC\INCLUDE\STRING
C:\PROGRAM FILES (X86)\MICROSOFT VISUAL STUDIO 12.0\VC\INCLUDE\ITERATOR
C:\PROGRAM FILES (X86)\MICROSOFT VISUAL STUDIO 12.0\VC\INCLUDE\ISTREAM
C:\PROGRAM FILES (X86)\MICROSOFT VISUAL STUDIO 12.0\VC\INCLUDE\OSTREAM
C:\PROGRAM FILES (X86)\MICROSOFT VISUAL STUDIO 12.0\VC\INCLUDE\IOS
C:\PROGRAM FILES (X86)\MICROSOFT VISUAL STUDIO 12.0\VC\INCLUDE\XLOCNUM
C:\PROGRAM FILES (X86)\MICROSOFT VISUAL STUDIO 12.0\VC\INCLUDE\CLIMITS
C:\PROGRAM FILES (X86)\MICROSOFT VISUAL STUDIO 12.0\VC\INCLUDE\YVALS.H
C:\PROGRAM FILES (X86)\MICROSOFT VISUAL STUDIO 12.0\VC\INCLUDE\XKEYCHECK.H
C:\PROGRAM FILES (X86)\MICROSOFT VISUAL STUDIO 12.0\VC\INCLUDE\CRTDEFS.H
C:\PROGRAM FILES (X86)\MICROSOFT VISUAL STUDIO 12.0\VC\INCLUDE\SAL.H
C:\PROGRAM FILES (X86)\MICROSOFT VISUAL STUDIO 12.0\VC\INCLUDE\CONCURRENCYSAL.H
C:\PROGRAM FILES (X86)\MICROSOFT VISUAL STUDIO 12.0\VC\INCLUDE\VADEFS.H
C:\PROGRAM FILES (X86)\MICROSOFT VISUAL STUDIO 12.0\VC\INCLUDE\USE_ANSI.H
C:\PROGRAM FILES (X86)\MICROSOFT VISUAL STUDIO 12.0\VC\INCLUDE\LIMITS.H
C:\PROGRAM FILES (X86)\MICROSOFT VISUAL STUDIO 12.0\VC\INCLUDE\CMATH
C:\PROGRAM FILES (X86)\MICROSOFT VISUAL STUDIO 12.0\VC\INCLUDE\MATH.H
C:\PROGRAM FILES (X86)\MICROSOFT VISUAL STUDIO 12.0\VC\INCLUDE\XTGMATH.H
C:\PROGRAM FILES (X86)\MICROSOFT VISUAL STUDIO 12.0\VC\INCLUDE\XTR1COMMON
C:\PROGRAM FILES (X86)\MICROSOFT VISUAL STUDIO 12.0\VC\INCLUDE\CSTDIO
C:\PROGRAM FILES (X86)\MICROSOFT VISUAL STUDIO 12.0\VC\INCLUDE\STDIO.H
C:\PROGRAM FILES (X86)\MICROSOFT VISUAL STUDIO 12.0\VC\INCLUDE\SWPRINTF.INL
C:\PROGRAM FILES (X86)\MICROSOFT VISUAL STUDIO 12.0\VC\INCLUDE\CSTDLIB
C:\PROGRAM FILES (X86)\MICROSOFT VISUAL STUDIO 12.0\VC\INCLUDE\STDLIB.H
C:\PROGRAM FILES (X86)\MICROSOFT VISUAL STUDIO 12.0\VC\INCLUDE\STREAMBUF
C:\PROGRAM FILES (X86)\MICROSOFT VISUAL STUDIO 12.0\VC\INCLUDE\XIOSBASE
C:\PROGRAM FILES (X86)\MICROSOFT VISUAL STUDIO 12.0\VC\INCLUDE\XLOCALE
C:\PROGRAM FILES (X86)\MICROSOFT VISUAL STUDIO 12.0\VC\INCLUDE\CSTRING
C:\PROGRAM FILES (X86)\MICROSOFT VISUAL STUDIO 12.0\VC\INCLUDE\STRING.H
C:\PROGRAM FILES (X86)\MICROSOFT VISUAL STUDIO 12.0\VC\INCLUDE\STDEXCEPT
C:\PROGRAM FILES (X86)\MICROSOFT VISUAL STUDIO 12.0\VC\INCLUDE\EXCEPTION
C:\PROGRAM FILES (X86)\MICROSOFT VISUAL STUDIO 12.0\VC\INCLUDE\XSTDDEF
C:\PROGRAM FILES (X86)\MICROSOFT VISUAL STUDIO 12.0\VC\INCLUDE\CSTDDEF
C:\PROGRAM FILES (X86)\MICROSOFT VISUAL STUDIO 12.0\VC\INCLUDE\STDDEF.H
C:\PROGRAM FILES (X86)\MICROSOFT VISUAL STUDIO 12.0\VC\INCLUDE\INITIALIZER_LIST
C:\PROGRAM FILES (X86)\MICROSOFT VISUAL STUDIO 12.0\VC\INCLUDE\EH.H
C:\PROGRAM FILES (X86)\MICROSOFT VISUAL STUDIO 12.0\VC\INCLUDE\MALLOC.H
C:\PROGRAM FILES (X86)\MICROSOFT VISUAL STUDIO 12.0\VC\INCLUDE\XSTRING
C:\PROGRAM FILES (X86)\MICROSOFT VISUAL STUDIO 12.0\VC\INCLUDE\XMEMORY0
C:\PROGRAM FILES (X86)\MICROSOFT VISUAL STUDIO 12.0\VC\INCLUDE\LIMITS
C:\PROGRAM FILES (X86)\MICROSOFT VISUAL STUDIO 12.0\VC\INCLUDE\YMATH.H
C:\PROGRAM FILES (X86)\MICROSOFT VISUAL STUDIO 12.0\VC\INCLUDE\CFLOAT
C:\PROGRAM FILES (X86)\MICROSOFT VISUAL STUDIO 12.0\VC\INCLUDE\FLOAT.H
C:\PROGRAM FILES (X86)\MICROSOFT VISUAL STUDIO 12.0\VC\INCLUDE\CRTWRN.H
C:\PROGRAM FILES (X86)\MICROSOFT VISUAL STUDIO 12.0\VC\INCLUDE\CWCHAR
C:\PROGRAM FILES (X86)\MICROSOFT VISUAL STUDIO 12.0\VC\INCLUDE\WCHAR.H
C:\PROGRAM FILES (X86)\MICROSOFT VISUAL STUDIO 12.0\VC\INCLUDE\WTIME.INL
C:\PROGRAM FILES (X86)\MICROSOFT VISUAL STUDIO 12.0\VC\INCLUDE\NEW
C:\PROGRAM FILES (X86)\MICROSOFT VISUAL STUDIO 12.0\VC\INCLUDE\XUTILITY
C:\PROGRAM FILES (X86)\MICROSOFT VISUAL STUDIO 12.0\VC\INCLUDE\UTILITY
C:\PROGRAM FILES (X86)\MICROSOFT VISUAL STUDIO 12.0\VC\INCLUDE\IOSFWD
C:\PROGRAM FILES (X86)\MICROSOFT VISUAL STUDIO 12.0\VC\INCLUDE\CRTDBG.H
C:\PROGRAM FILES (X86)\MICROSOFT VISUAL STUDIO 12.0\VC\INCLUDE\TYPE_TRAITS
C:\PROGRAM FILES (X86)\MICROSOFT VISUAL STUDIO 12.0\VC\INCLUDE\XREFWRAP
C:\PROGRAM FILES (X86)\MICROSOFT VISUAL STUDIO 12.0\VC\INCLUDE\XATOMIC0.H
C:\PROGRAM FILES (X86)\MICROSOFT VISUAL STUDIO 12.0\VC\INCLUDE\INTRIN.H
C:\PROGRAM FILES (X86)\MICROSOFT VISUAL STUDIO 12.0\VC\INCLUDE\SETJMP.H
C:\PROGRAM FILES (X86)\MICROSOFT VISUAL STUDIO 12.0\VC\INCLUDE\IMMINTRIN.H
C:\PROGRAM FILES (X86)\MICROSOFT VISUAL STUDIO 12.0\VC\INCLUDE\WMMINTRIN.H
C:\PROGRAM FILES (X86)\MICROSOFT VISUAL STUDIO 12.0\VC\INCLUDE\NMMINTRIN.H
C:\PROGRAM FILES (X86)\MICROSOFT VISUAL STUDIO 12.0\VC\INCLUDE\SMMINTRIN.H
C:\PROGRAM FILES (X86)\MICROSOFT VISUAL STUDIO 12.0\VC\INCLUDE\TMMINTRIN.H
C:\PROGRAM FILES (X86)\MICROSOFT VISUAL STUDIO 12.0\VC\INCLUDE\PMMINTRIN.H
C:\PROGRAM FILES (X86)\MICROSOFT VISUAL STUDIO 12.0\VC\INCLUDE\EMMINTRIN.H
C:\PROGRAM FILES (X86)\MICROSOFT VISUAL STUDIO 12.0\VC\INCLUDE\XMMINTRIN.H
C:\PROGRAM FILES (X86)\MICROSOFT VISUAL STUDIO 12.0\VC\INCLUDE\MMINTRIN.H
C:\PROGRAM FILES (X86)\MICROSOFT VISUAL STUDIO 12.0\VC\INCLUDE\AMMINTRIN.H
C:\PROGRAM FILES (X86)\MICROSOFT VISUAL STUDIO 12.0\VC\INCLUDE\MM3DNOW.H
C:\PROGRAM FILES (X86)\MICROSOFT VISUAL STUDIO 12.0\VC\INCLUDE\TYPEINFO
C:\PROGRAM FILES (X86)\MICROSOFT VISUAL STUDIO 12.0\VC\INCLUDE\XLOCINFO
C:\PROGRAM FILES (X86)\MICROSOFT VISUAL STUDIO 12.0\VC\INCLUDE\XLOCINFO.H
C:\PROGRAM FILES (X86)\MICROSOFT VISUAL STUDIO 12.0\VC\INCLUDE\CTYPE.H
C:\PROGRAM FILES (X86)\MICROSOFT VISUAL STUDIO 12.0\VC\INCLUDE\LOCALE.H
C:\PROGRAM FILES (X86)\MICROSOFT VISUAL STUDIO 12.0\VC\INCLUDE\XDEBUG
C:\PROGRAM FILES (X86)\MICROSOFT VISUAL STUDIO 12.0\VC\INCLUDE\XFACET
C:\PROGRAM FILES (X86)\MICROSOFT VISUAL STUDIO 12.0\VC\INCLUDE\SYSTEM_ERROR
C:\PROGRAM FILES (X86)\MICROSOFT VISUAL STUDIO 12.0\VC\INCLUDE\CERRNO
C:\PROGRAM FILES (X86)\MICROSOFT VISUAL STUDIO 12.0\VC\INCLUDE\ERRNO.H
C:\PROGRAM FILES (X86)\MICROSOFT VISUAL STUDIO 12.0\VC\INCLUDE\SHARE.H
F:\MY GAMES\LIBRARIES\GLEW-1.13.0\INCLUDE\GL\GLEW.H
C:\PROGRAM FILES (X86)\WINDOWS KITS\8.1\INCLUDE\UM\GL\GLU.H
C:\PROGRAM FILES (X86)\WINDOWS KITS\8.1\INCLUDE\SHARED\WINAPIFAMILY.H
C:\PROGRAM FILES (X86)\WINDOWS KITS\8.1\INCLUDE\UM\GL\GL.H
F:\MY GAMES\LIBRARIES\GLFW-3.1.2.BIN.WIN32\INCLUDE\GLFW\GLFW3.H
F:\MY GAMES\R+D\3D_DISTANCE_COLLISION\SHADER.H
C:\PROGRAM FILES (X86)\MICROSOFT VISUAL STUDIO 12.0\VC\INCLUDE\FSTREAM
C:\PROGRAM FILES (X86)\MICROSOFT VISUAL STUDIO 12.0\VC\INCLUDE\SSTREAM
C:\PROGRAM FILES (X86)\MICROSOFT VISUAL STUDIO 12.0\VC\INCLUDE\IOSTREAM
F:\MY GAMES\R+D\3D_DISTANCE_COLLISION\CAMERA.H
C:\PROGRAM FILES (X86)\MICROSOFT VISUAL STUDIO 12.0\VC\INCLUDE\VECTOR
C:\PROGRAM FILES (X86)\MICROSOFT VISUAL STUDIO 12.0\VC\INCLUDE\XMEMORY
F:\MY GAMES\LIBRARIES\GLM\GLM\GLM.HPP
F:\MY GAMES\LIBRARIES\GLM\GLM\DETAIL\_FIXES.HPP
C:\PROGRAM FILES (X86)\MICROSOFT VISUAL STUDIO 12.0\VC\INCLUDE\CASSERT
C:\PROGRAM FILES (X86)\MICROSOFT VISUAL STUDIO 12.0\VC\INCLUDE\ASSERT.H
F:\MY GAMES\LIBRARIES\GLM\GLM\FWD.HPP
F:\MY GAMES\LIBRARIES\GLM\GLM\DETAIL\TYPE_INT.HPP
F:\MY GAMES\LIBRARIES\GLM\GLM\DETAIL\SETUP.HPP
C:\PROGRAM FILES (X86)\MICROSOFT VISUAL STUDIO 12.0\VC\INCLUDE\CSTDINT
C:\PROGRAM FILES (X86)\MICROSOFT VISUAL STUDIO 12.0\VC\INCLUDE\STDINT.H
F:\MY GAMES\LIBRARIES\GLM\GLM\DETAIL\TYPE_FLOAT.HPP
F:\MY GAMES\LIBRARIES\GLM\GLM\DETAIL\TYPE_VEC.HPP
F:\MY GAMES\LIBRARIES\GLM\GLM\DETAIL\PRECISION.HPP
F:\MY GAMES\LIBRARIES\GLM\GLM\DETAIL\TYPE_MAT.HPP
F:\MY GAMES\LIBRARIES\GLM\GLM\VEC2.HPP
F:\MY GAMES\LIBRARIES\GLM\GLM\DETAIL\TYPE_VEC2.HPP
F:\MY GAMES\LIBRARIES\GLM\GLM\DETAIL\TYPE_VEC2.INL
F:\MY GAMES\LIBRARIES\GLM\GLM\VEC3.HPP
F:\MY GAMES\LIBRARIES\GLM\GLM\DETAIL\TYPE_VEC3.HPP
F:\MY GAMES\LIBRARIES\GLM\GLM\DETAIL\TYPE_VEC3.INL
F:\MY GAMES\LIBRARIES\GLM\GLM\VEC4.HPP
F:\MY GAMES\LIBRARIES\GLM\GLM\DETAIL\TYPE_VEC4.HPP
F:\MY GAMES\LIBRARIES\GLM\GLM\DETAIL\TYPE_VEC4.INL
F:\MY GAMES\LIBRARIES\GLM\GLM\DETAIL\TYPE_VEC4_SSE2.INL
F:\MY GAMES\LIBRARIES\GLM\GLM\MAT2X2.HPP
F:\MY GAMES\LIBRARIES\GLM\GLM\DETAIL\TYPE_MAT2X2.HPP
F:\MY GAMES\LIBRARIES\GLM\GLM\DETAIL\TYPE_MAT2X2.INL
F:\MY GAMES\LIBRARIES\GLM\GLM\MAT2X3.HPP
F:\MY GAMES\LIBRARIES\GLM\GLM\DETAIL\TYPE_MAT2X3.HPP
F:\MY GAMES\LIBRARIES\GLM\GLM\DETAIL\TYPE_MAT2X3.INL
F:\MY GAMES\LIBRARIES\GLM\GLM\MAT2X4.HPP
F:\MY GAMES\LIBRARIES\GLM\GLM\DETAIL\TYPE_MAT2X4.HPP
F:\MY GAMES\LIBRARIES\GLM\GLM\DETAIL\TYPE_MAT2X4.INL
F:\MY GAMES\LIBRARIES\GLM\GLM\MAT3X2.HPP
F:\MY GAMES\LIBRARIES\GLM\GLM\DETAIL\TYPE_MAT3X2.HPP
F:\MY GAMES\LIBRARIES\GLM\GLM\DETAIL\TYPE_MAT3X2.INL
F:\MY GAMES\LIBRARIES\GLM\GLM\MAT3X3.HPP
F:\MY GAMES\LIBRARIES\GLM\GLM\DETAIL\TYPE_MAT3X3.HPP
F:\MY GAMES\LIBRARIES\GLM\GLM\DETAIL\TYPE_MAT3X3.INL
F:\MY GAMES\LIBRARIES\GLM\GLM\MAT3X4.HPP
F:\MY GAMES\LIBRARIES\GLM\GLM\DETAIL\TYPE_MAT3X4.HPP
F:\MY GAMES\LIBRARIES\GLM\GLM\DETAIL\TYPE_MAT3X4.INL
F:\MY GAMES\LIBRARIES\GLM\GLM\MAT4X2.HPP
F:\MY GAMES\LIBRARIES\GLM\GLM\DETAIL\TYPE_MAT4X2.HPP
F:\MY GAMES\LIBRARIES\GLM\GLM\DETAIL\TYPE_MAT4X2.INL
F:\MY GAMES\LIBRARIES\GLM\GLM\MAT4X3.HPP
F:\MY GAMES\LIBRARIES\GLM\GLM\DETAIL\TYPE_MAT4X3.HPP
F:\MY GAMES\LIBRARIES\GLM\GLM\DETAIL\TYPE_MAT4X3.INL
F:\MY GAMES\LIBRARIES\GLM\GLM\MAT4X4.HPP
F:\MY GAMES\LIBRARIES\GLM\GLM\DETAIL\TYPE_MAT4X4.HPP
F:\MY GAMES\LIBRARIES\GLM\GLM\DETAIL\TYPE_MAT4X4.INL
F:\MY GAMES\LIBRARIES\GLM\GLM\TRIGONOMETRIC.HPP
F:\MY GAMES\LIBRARIES\GLM\GLM\DETAIL\FUNC_TRIGONOMETRIC.HPP
F:\MY GAMES\LIBRARIES\GLM\GLM\DETAIL\FUNC_TRIGONOMETRIC.INL
F:\MY GAMES\LIBRARIES\GLM\GLM\DETAIL\_VECTORIZE.HPP
F:\MY GAMES\LIBRARIES\GLM\GLM\DETAIL\TYPE_VEC1.HPP
F:\MY GAMES\LIBRARIES\GLM\GLM\DETAIL\TYPE_VEC1.INL
F:\MY GAMES\LIBRARIES\GLM\GLM\EXPONENTIAL.HPP
F:\MY GAMES\LIBRARIES\GLM\GLM\DETAIL\FUNC_EXPONENTIAL.HPP
F:\MY GAMES\LIBRARIES\GLM\GLM\DETAIL\FUNC_EXPONENTIAL.INL
F:\MY GAMES\LIBRARIES\GLM\GLM\DETAIL\FUNC_VECTOR_RELATIONAL.HPP
F:\MY GAMES\LIBRARIES\GLM\GLM\DETAIL\FUNC_VECTOR_RELATIONAL.INL
F:\MY GAMES\LIBRARIES\GLM\GLM\COMMON.HPP
F:\MY GAMES\LIBRARIES\GLM\GLM\DETAIL\FUNC_COMMON.HPP
F:\MY GAMES\LIBRARIES\GLM\GLM\DETAIL\FUNC_COMMON.INL
F:\MY GAMES\LIBRARIES\GLM\GLM\PACKING.HPP
F:\MY GAMES\LIBRARIES\GLM\GLM\DETAIL\FUNC_PACKING.HPP
F:\MY GAMES\LIBRARIES\GLM\GLM\DETAIL\FUNC_PACKING.INL
F:\MY GAMES\LIBRARIES\GLM\GLM\DETAIL\TYPE_HALF.HPP
F:\MY GAMES\LIBRARIES\GLM\GLM\DETAIL\TYPE_HALF.INL
F:\MY GAMES\LIBRARIES\GLM\GLM\GEOMETRIC.HPP
F:\MY GAMES\LIBRARIES\GLM\GLM\DETAIL\FUNC_GEOMETRIC.HPP
F:\MY GAMES\LIBRARIES\GLM\GLM\DETAIL\FUNC_GEOMETRIC.INL
F:\MY GAMES\LIBRARIES\GLM\GLM\MATRIX.HPP
F:\MY GAMES\LIBRARIES\GLM\GLM\DETAIL\FUNC_MATRIX.HPP
F:\MY GAMES\LIBRARIES\GLM\GLM\DETAIL\FUNC_MATRIX.INL
F:\MY GAMES\LIBRARIES\GLM\GLM\VECTOR_RELATIONAL.HPP
F:\MY GAMES\LIBRARIES\GLM\GLM\INTEGER.HPP
F:\MY GAMES\LIBRARIES\GLM\GLM\DETAIL\FUNC_INTEGER.HPP
F:\MY GAMES\LIBRARIES\GLM\GLM\DETAIL\FUNC_INTEGER.INL
F:\MY GAMES\LIBRARIES\GLM\GLM\GTC\MATRIX_TRANSFORM.HPP
F:\MY GAMES\LIBRARIES\GLM\GLM\GTC\CONSTANTS.HPP
F:\MY GAMES\LIBRARIES\GLM\GLM\GTC\CONSTANTS.INL
F:\MY GAMES\LIBRARIES\GLM\GLM\GTC\MATRIX_TRANSFORM.INL
F:\MY GAMES\R+D\3D_DISTANCE_COLLISION\MODEL.H
C:\PROGRAM FILES (X86)\MICROSOFT VISUAL STUDIO 12.0\VC\INCLUDE\MAP
C:\PROGRAM FILES (X86)\MICROSOFT VISUAL STUDIO 12.0\VC\INCLUDE\XTREE
C:\PROGRAM FILES (X86)\MICROSOFT VISUAL STUDIO 12.0\VC\INCLUDE\TUPLE
F:\MY GAMES\LIBRARIES\SIMPLE OPENGL IMAGE LIBRARY\SRC\SOIL.H
F:\MY GAMES\LIBRARIES\ASSIMP-3.3.1\INCLUDE\ASSIMP\IMPORTER.HPP
F:\MY GAMES\LIBRARIES\ASSIMP-3.3.1\INCLUDE\ASSIMP\TYPES.H
C:\PROGRAM FILES (X86)\MICROSOFT VISUAL STUDIO 12.0\VC\INCLUDE\SYS\TYPES.H
F:\MY GAMES\LIBRARIES\ASSIMP-3.3.1\INCLUDE\ASSIMP\DEFS.H
F:\MY GAMES\LIBRARIES\ASSIMP-3.3.1\INCLUDE\ASSIMP\VECTOR3.H
F:\MY GAMES\LIBRARIES\ASSIMP-3.3.1\INCLUDE\ASSIMP\COMPILER\PUSHPACK1.H
F:\MY GAMES\LIBRARIES\ASSIMP-3.3.1\INCLUDE\ASSIMP\COMPILER\POPPACK1.H
F:\MY GAMES\LIBRARIES\ASSIMP-3.3.1\INCLUDE\ASSIMP\VECTOR2.H
F:\MY GAMES\LIBRARIES\ASSIMP-3.3.1\INCLUDE\ASSIMP\COLOR4.H
F:\MY GAMES\LIBRARIES\ASSIMP-3.3.1\INCLUDE\ASSIMP\MATRIX3X3.H
F:\MY GAMES\LIBRARIES\ASSIMP-3.3.1\INCLUDE\ASSIMP\MATRIX4X4.H
F:\MY GAMES\LIBRARIES\ASSIMP-3.3.1\INCLUDE\ASSIMP\QUATERNION.H
F:\MY GAMES\LIBRARIES\ASSIMP-3.3.1\INCLUDE\ASSIMP\VECTOR2.INL
F:\MY GAMES\LIBRARIES\ASSIMP-3.3.1\INCLUDE\ASSIMP\VECTOR3.INL
F:\MY GAMES\LIBRARIES\ASSIMP-3.3.1\INCLUDE\ASSIMP\COLOR4.INL
F:\MY GAMES\LIBRARIES\ASSIMP-3.3.1\INCLUDE\ASSIMP\QUATERNION.INL
F:\MY GAMES\LIBRARIES\ASSIMP-3.3.1\INCLUDE\ASSIMP\MATRIX3X3.INL
C:\PROGRAM FILES (X86)\MICROSOFT VISUAL STUDIO 12.0\VC\INCLUDE\ALGORITHM
F:\MY GAMES\LIBRARIES\ASSIMP-3.3.1\INCLUDE\ASSIMP\MATRIX4X4.INL
F:\MY GAMES\LIBRARIES\ASSIMP-3.3.1\INCLUDE\ASSIMP\CONFIG.H
F:\MY GAMES\LIBRARIES\ASSIMP-3.3.1\INCLUDE\ASSIMP\SCENE.H
F:\MY GAMES\LIBRARIES\ASSIMP-3.3.1\INCLUDE\ASSIMP\TEXTURE.H
F:\MY GAMES\LIBRARIES\ASSIMP-3.3.1\INCLUDE\ASSIMP\MESH.H
F:\MY GAMES\LIBRARIES\ASSIMP-3.3.1\INCLUDE\ASSIMP\LIGHT.H
F:\MY GAMES\LIBRARIES\ASSIMP-3.3.1\INCLUDE\ASSIMP\CAMERA.H
F:\MY GAMES\LIBRARIES\ASSIMP-3.3.1\INCLUDE\ASSIMP\MATERIAL.H
F:\MY GAMES\LIBRARIES\ASSIMP-3.3.1\INCLUDE\ASSIMP\MATERIAL.INL
F:\MY GAMES\LIBRARIES\ASSIMP-3.3.1\INCLUDE\ASSIMP\ANIM.H
F:\MY GAMES\LIBRARIES\ASSIMP-3.3.1\INCLUDE\ASSIMP\METADATA.H
F:\MY GAMES\LIBRARIES\ASSIMP-3.3.1\INCLUDE\ASSIMP\POSTPROCESS.H
F:\MY GAMES\R+D\3D_DISTANCE_COLLISION\MESH.H
F:\MY GAMES\R+D\3D_DISTANCE_COLLISION\CUSTOMMATH.H
F:\MY GAMES\LIBRARIES\GLM\GLM\GTC\TYPE_PTR.HPP
F:\MY GAMES\LIBRARIES\GLM\GLM\GTC\QUATERNION.HPP
F:\MY GAMES\LIBRARIES\GLM\GLM\GTC\QUATERNION.INL
F:\MY GAMES\LIBRARIES\GLM\GLM\GTC\TYPE_PTR.INL
