^E:\GAME_PROJECTS\VS 2013\LIBRARIES\CMAKE\GLEW-1.13.0\SRC\GLEW.C
E:\GAME_PROJECTS\VS 2013\LIBRARIES\CMAKE\GLEW-1.13.0\BUILDS\GLEWMX_S.DIR\DEBUG\VC120.PDB
E:\GAME_PROJECTS\VS 2013\LIBRARIES\CMAKE\GLEW-1.13.0\BUILDS\GLEWMX_S.DIR\DEBUG\GLEW.OBJ
