^E:\GAME_PROJECTS\VS 2013\LIBRARIES\CMAKE\GLEW-1.13.0\BUILD\CMAKE\CMAKELISTS.TXT
E:\GAME_PROJECTS\VS 2013\LIBRARIES\CMAKE\GLEW-1.13.0\BUILDS\CMAKEFILES\3.4.0-RC1\CMAKESYSTEM.CMAKE
C:\PROGRAM FILES (X86)\CMAKE\SHARE\CMAKE-3.4\MODULES\CMAKESYSTEMSPECIFICINITIALIZE.CMAKE
E:\GAME_PROJECTS\VS 2013\LIBRARIES\CMAKE\GLEW-1.13.0\BUILDS\CMAKEFILES\3.4.0-RC1\CMAKECCOMPILER.CMAKE
E:\GAME_PROJECTS\VS 2013\LIBRARIES\CMAKE\GLEW-1.13.0\BUILDS\CMAKEFILES\3.4.0-RC1\CMAKECXXCOMPILER.CMAKE
C:\PROGRAM FILES (X86)\CMAKE\SHARE\CMAKE-3.4\MODULES\CMAKESYSTEMSPECIFICINFORMATION.CMAKE
C:\PROGRAM FILES (X86)\CMAKE\SHARE\CMAKE-3.4\MODULES\CMAKEGENERICSYSTEM.CMAKE
C:\PROGRAM FILES (X86)\CMAKE\SHARE\CMAKE-3.4\MODULES\PLATFORM\WINDOWS.CMAKE
C:\PROGRAM FILES (X86)\CMAKE\SHARE\CMAKE-3.4\MODULES\PLATFORM\WINDOWSPATHS.CMAKE
C:\PROGRAM FILES (X86)\CMAKE\SHARE\CMAKE-3.4\MODULES\CMAKECINFORMATION.CMAKE
C:\PROGRAM FILES (X86)\CMAKE\SHARE\CMAKE-3.4\MODULES\PLATFORM\WINDOWS-MSVC-C.CMAKE
C:\PROGRAM FILES (X86)\CMAKE\SHARE\CMAKE-3.4\MODULES\PLATFORM\WINDOWS-MSVC.CMAKE
E:\GAME_PROJECTS\VS 2013\LIBRARIES\CMAKE\GLEW-1.13.0\BUILDS\CMAKEFILES\3.4.0-RC1\CMAKERCCOMPILER.CMAKE
C:\PROGRAM FILES (X86)\CMAKE\SHARE\CMAKE-3.4\MODULES\CMAKERCINFORMATION.CMAKE
C:\PROGRAM FILES (X86)\CMAKE\SHARE\CMAKE-3.4\MODULES\CMAKECOMMONLANGUAGEINCLUDE.CMAKE
C:\PROGRAM FILES (X86)\CMAKE\SHARE\CMAKE-3.4\MODULES\CMAKECXXINFORMATION.CMAKE
C:\PROGRAM FILES (X86)\CMAKE\SHARE\CMAKE-3.4\MODULES\COMPILER\MSVC-CXX.CMAKE
C:\PROGRAM FILES (X86)\CMAKE\SHARE\CMAKE-3.4\MODULES\PLATFORM\WINDOWS-MSVC-CXX.CMAKE
C:\PROGRAM FILES (X86)\CMAKE\SHARE\CMAKE-3.4\MODULES\FINDOPENGL.CMAKE
C:\PROGRAM FILES (X86)\CMAKE\SHARE\CMAKE-3.4\MODULES\FINDPACKAGEHANDLESTANDARDARGS.CMAKE
C:\PROGRAM FILES (X86)\CMAKE\SHARE\CMAKE-3.4\MODULES\FINDPACKAGEMESSAGE.CMAKE
C:\PROGRAM FILES (X86)\CMAKE\SHARE\CMAKE-3.4\MODULES\CMAKEPARSEARGUMENTS.CMAKE
E:\GAME_PROJECTS\VS 2013\LIBRARIES\CMAKE\GLEW-1.13.0\GLEW.PC.IN
