^E:\GAME_PROJECTS\VS 2013\LIBRARIES\CMAKE\GLFW-3.2\DEPS\GETOPT.C|E:\GAME_PROJECTS\VS 2013\LIBRARIES\CMAKE\GLFW-3.2\DEPS\GLAD.C|E:\GAME_PROJECTS\VS 2013\LIBRARIES\CMAKE\GLFW-3.2\DEPS\TINYCTHREAD.C|E:\GAME_PROJECTS\VS 2013\LIBRARIES\CMAKE\GLFW-3.2\EXAMPLES\PARTICLES.C
E:\GAME_PROJECTS\VS 2013\LIBRARIES\CMAKE\GLFW-3.2\BUILDS\EXAMPLES\PARTICLES.DIR\DEBUG\VC120.PDB
E:\GAME_PROJECTS\VS 2013\LIBRARIES\CMAKE\GLFW-3.2\BUILDS\EXAMPLES\PARTICLES.DIR\DEBUG\GLAD.OBJ
E:\GAME_PROJECTS\VS 2013\LIBRARIES\CMAKE\GLFW-3.2\BUILDS\EXAMPLES\PARTICLES.DIR\DEBUG\GETOPT.OBJ
E:\GAME_PROJECTS\VS 2013\LIBRARIES\CMAKE\GLFW-3.2\BUILDS\EXAMPLES\PARTICLES.DIR\DEBUG\TINYCTHREAD.OBJ
E:\GAME_PROJECTS\VS 2013\LIBRARIES\CMAKE\GLFW-3.2\BUILDS\EXAMPLES\PARTICLES.DIR\DEBUG\PARTICLES.OBJ
^E:\GAME_PROJECTS\VS 2013\LIBRARIES\CMAKE\GLFW-3.2\EXAMPLES\PARTICLES.C
E:\GAME_PROJECTS\VS 2013\LIBRARIES\CMAKE\GLFW-3.2\BUILDS\EXAMPLES\PARTICLES.DIR\DEBUG\VC120.PDB
^E:\GAME_PROJECTS\VS 2013\LIBRARIES\CMAKE\GLFW-3.2\DEPS\TINYCTHREAD.C
E:\GAME_PROJECTS\VS 2013\LIBRARIES\CMAKE\GLFW-3.2\BUILDS\EXAMPLES\PARTICLES.DIR\DEBUG\VC120.PDB
^E:\GAME_PROJECTS\VS 2013\LIBRARIES\CMAKE\GLFW-3.2\DEPS\GETOPT.C
E:\GAME_PROJECTS\VS 2013\LIBRARIES\CMAKE\GLFW-3.2\BUILDS\EXAMPLES\PARTICLES.DIR\DEBUG\VC120.PDB
^E:\GAME_PROJECTS\VS 2013\LIBRARIES\CMAKE\GLFW-3.2\DEPS\GLAD.C
E:\GAME_PROJECTS\VS 2013\LIBRARIES\CMAKE\GLFW-3.2\BUILDS\EXAMPLES\PARTICLES.DIR\DEBUG\VC120.PDB
