^E:\GAME_PROJECTS\VS 2013\LIBRARIES\CMAKE\GLFW-3.2\BUILDS\EXAMPLES\PARTICLES.DIR\DEBUG\GETOPT.OBJ|E:\GAME_PROJECTS\VS 2013\LIBRARIES\CMAKE\GLFW-3.2\BUILDS\EXAMPLES\PARTICLES.DIR\DEBUG\GLAD.OBJ|E:\GAME_PROJECTS\VS 2013\LIBRARIES\CMAKE\GLFW-3.2\BUILDS\EXAMPLES\PARTICLES.DIR\DEBUG\GLFW.RES|E:\GAME_PROJECTS\VS 2013\LIBRARIES\CMAKE\GLFW-3.2\BUILDS\EXAMPLES\PARTICLES.DIR\DEBUG\PARTICLES.OBJ|E:\GAME_PROJECTS\VS 2013\LIBRARIES\CMAKE\GLFW-3.2\BUILDS\EXAMPLES\PARTICLES.DIR\DEBUG\TINYCTHREAD.OBJ
E:\GAME_PROJECTS\VS 2013\LIBRARIES\CMAKE\GLFW-3.2\BUILDS\EXAMPLES\DEBUG\PARTICLES.ILK
E:\GAME_PROJECTS\VS 2013\LIBRARIES\CMAKE\GLFW-3.2\BUILDS\EXAMPLES\DEBUG\PARTICLES.EXE
E:\GAME_PROJECTS\VS 2013\LIBRARIES\CMAKE\GLFW-3.2\BUILDS\EXAMPLES\DEBUG\PARTICLES.PDB
