^E:\GAME_PROJECTS\VS 2013\LIBRARIES\CMAKE\GLFW-3.2\DEPS\GLAD.C|E:\GAME_PROJECTS\VS 2013\LIBRARIES\CMAKE\GLFW-3.2\EXAMPLES\WAVE.C
E:\GAME_PROJECTS\VS 2013\LIBRARIES\CMAKE\GLFW-3.2\BUILDS\EXAMPLES\WAVE.DIR\DEBUG\VC120.PDB
E:\GAME_PROJECTS\VS 2013\LIBRARIES\CMAKE\GLFW-3.2\BUILDS\EXAMPLES\WAVE.DIR\DEBUG\GLAD.OBJ
E:\GAME_PROJECTS\VS 2013\LIBRARIES\CMAKE\GLFW-3.2\BUILDS\EXAMPLES\WAVE.DIR\DEBUG\WAVE.OBJ
^E:\GAME_PROJECTS\VS 2013\LIBRARIES\CMAKE\GLFW-3.2\EXAMPLES\WAVE.C
E:\GAME_PROJECTS\VS 2013\LIBRARIES\CMAKE\GLFW-3.2\BUILDS\EXAMPLES\WAVE.DIR\DEBUG\VC120.PDB
^E:\GAME_PROJECTS\VS 2013\LIBRARIES\CMAKE\GLFW-3.2\DEPS\GLAD.C
E:\GAME_PROJECTS\VS 2013\LIBRARIES\CMAKE\GLFW-3.2\BUILDS\EXAMPLES\WAVE.DIR\DEBUG\VC120.PDB
