^E:\GAME_PROJECTS\VS 2013\LIBRARIES\CMAKE\GLEW-1.13.0\BUILDS\GLEW_S.DIR\DEBUG\GLEW.OBJ
C:\WINDOWS\SYSTEM32\TZRES.DLL
E:\GAME_PROJECTS\VS 2013\LIBRARIES\CMAKE\GLEW-1.13.0\BUILDS\GLEW_S.DIR\DEBUG\GLEW.OBJ
