﻿Build started 26/06/2016 15:45:18.
     1>Project "E:\Game_Projects\VS 2013\libraries\cmake\glew-1.13.0\builds\glew.vcxproj" on node 2 (Build target(s)).
     1>CustomBuild:
         Building Custom Rule E:/Game_Projects/VS 2013/libraries/cmake/glew-1.13.0/build/cmake/CMakeLists.txt
         CMake does not need to re-run because E:\Game_Projects\VS 2013\libraries\cmake\glew-1.13.0\builds\CMakeFiles\generate.stamp is up-to-date.
       ClCompile:
         C:\Program Files (x86)\Microsoft Visual Studio 12.0\VC\bin\x86_amd64\CL.exe /c /I"E:\Game_Projects\VS 2013\libraries\cmake\glew-1.13.0\build\cmake\..\..\include" /Zi /nologo /W3 /WX- /Od /Ob0 /D WIN32 /D _WINDOWS /D _DEBUG /D GLEW_BUILD /D GLEW_NO_GLU /D "CMAKE_INTDIR=\"Debug\"" /D glew_EXPORTS /D _WINDLL /D _MBCS /Gm- /RTC1 /MDd /GS /fp:precise /Zc:wchar_t /Zc:forScope /Fo"glew.dir\Debug\\" /Fd"glew.dir\Debug\vc120.pdb" /Gd /TC /errorReport:prompt "E:\Game_Projects\VS 2013\libraries\cmake\glew-1.13.0\src\glew.c"
         glew.c
       Link:
         C:\Program Files (x86)\Microsoft Visual Studio 12.0\VC\bin\x86_amd64\link.exe /ERRORREPORT:PROMPT /OUT:"E:\Game_Projects\VS 2013\libraries\cmake\glew-1.13.0\builds\bin\Debug\glew32d.dll" /INCREMENTAL /NOLOGO kernel32.lib user32.lib gdi32.lib winspool.lib shell32.lib ole32.lib oleaut32.lib uuid.lib comdlg32.lib advapi32.lib glu32.lib opengl32.lib /MANIFEST /MANIFESTUAC:"level='asInvoker' uiAccess='false'" /manifest:embed /DEBUG /PDB:"E:/Game_Projects/VS 2013/libraries/cmake/glew-1.13.0/builds/bin/Debug/glew32d.pdb" /SUBSYSTEM:CONSOLE /TLBID:1 /DYNAMICBASE /NXCOMPAT /IMPLIB:"E:/Game_Projects/VS 2013/libraries/cmake/glew-1.13.0/builds/lib/Debug/glew32d.lib" /MACHINE:X64  /machine:x64 /debug /DLL glew.dir\Debug\glew.obj
            Creating library E:/Game_Projects/VS 2013/libraries/cmake/glew-1.13.0/builds/lib/Debug/glew32d.lib and object E:/Game_Projects/VS 2013/libraries/cmake/glew-1.13.0/builds/lib/Debug/glew32d.exp
         glew.vcxproj -> E:\Game_Projects\VS 2013\libraries\cmake\glew-1.13.0\builds\bin\Debug\glew32d.dll
     1>Done Building Project "E:\Game_Projects\VS 2013\libraries\cmake\glew-1.13.0\builds\glew.vcxproj" (Build target(s)).

Build succeeded.

Time Elapsed 00:00:01.27
